InstaCart Exploratory Analysis: Users
…
Calculate the numer of orders per user.

num_of_orders <- orders%>%
group_by(user_id)%>%
summarise(num_of_orders=n())
num_of_orders

## # A tibble: 40,000 x 2
##    user_id num_of_orders
##      <int>         <int>
##  1       2            15
##  2       6             4
##  3      10             6
##  4      16             7
##  5      50            68
##  6      52            28
##  7      63            40
##  8      73             8
##  9      77            13
## 10      78             7
## # ... with 39,990 more rows

orders <- orders%>%
left_join(num_of_orders)

## Joining, by = "user_id"

orders

## # A tibble: 660,203 x 9
##       X1 order_id user_id eval_set order_number order_dow
##    <int>    <int>   <int>    <chr>        <int>     <chr>
##  1     1  2168274       2    prior            1   Tuesday
##  2     2  1501582       2    prior            2    Friday
##  3     3  1901567       2    prior            3    Monday
##  4     4   738281       2    prior            4   Tuesday
##  5     5  1673511       2    prior            5 Wednesday
##  6     6  1199898       2    prior            6   Tuesday
##  7     7  3194192       2    prior            7   Tuesday
##  8     8   788338       2    prior            8    Monday
##  9     9  1718559       2    prior            9   Tuesday
## 10    10  1447487       2    prior           10    Monday
## # ... with 660,193 more rows, and 3 more variables:
## #   order_hour_of_day <chr>, days_since_prior_order <int>,
## #   num_of_orders <int>
…
join the two tables together and filter out training data

orders$eval_set <- as.factor(orders$eval_set)
order_products_train <-
  products %>%
  inner_join(orders, by="order_id") 

order_products_train

## # A tibble: 6,228,879 x 13
##     X1.x order_id product_id add_to_cart_order reordered   X1.y user_id
##    <int>    <int>      <int>             <int>     <int>  <int>   <int>
##  1     1        4      46842                 1         0 571071  178520
##  2     2        4      26434                 2         1 571071  178520
##  3     3        4      39758                 3         1 571071  178520
##  4     4        4      27761                 4         1 571071  178520
##  5     5        4      10054                 5         1 571071  178520
##  6     6        4      21351                 6         1 571071  178520
##  7     7        4      22598                 7         1 571071  178520
##  8     8        4      34862                 8         1 571071  178520
##  9     9        4      40285                 9         1 571071  178520
## 10    10        4      17616                10         1 571071  178520
## # ... with 6,228,869 more rows, and 6 more variables: eval_set <fctr>,
## #   order_number <int>, order_dow <chr>, order_hour_of_day <chr>,
## #   days_since_prior_order <int>, num_of_orders <int>

numitems <- order_products_train %>%
  group_by(user_id) %>%
  summarise(numitems = n())
numitems

## # A tibble: 40,000 x 2
##    user_id numitems
##      <int>    <int>
##  1       2      195
##  2       6       14
##  3      10      143
##  4      16       70
##  5      50      453
##  6      52      169
##  7      63      504
##  8      73       24
##  9      77      203
## 10      78       41
## # ... with 39,990 more rows

order_products_train <- order_products_train%>%
  left_join(numitems,by="user_id")

order_products_train

## # A tibble: 6,228,879 x 14
##     X1.x order_id product_id add_to_cart_order reordered   X1.y user_id
##    <int>    <int>      <int>             <int>     <int>  <int>   <int>
##  1     1        4      46842                 1         0 571071  178520
##  2     2        4      26434                 2         1 571071  178520
##  3     3        4      39758                 3         1 571071  178520
##  4     4        4      27761                 4         1 571071  178520
##  5     5        4      10054                 5         1 571071  178520
##  6     6        4      21351                 6         1 571071  178520
##  7     7        4      22598                 7         1 571071  178520
##  8     8        4      34862                 8         1 571071  178520
##  9     9        4      40285                 9         1 571071  178520
## 10    10        4      17616                10         1 571071  178520
## # ... with 6,228,869 more rows, and 7 more variables: eval_set <fctr>,
## #   order_number <int>, order_dow <chr>, order_hour_of_day <chr>,
## #   days_since_prior_order <int>, num_of_orders <int>, numitems <int>
…
