InstaCart Predictive Analysis: Number of Items (Danny)
…
users$user.avgOrderSize = users$user.totalProducts / users$user.numOrders

As an intermidatory step we want to gather all of the train and test orders.

users_notPrior <- orders %>%
  filter(eval_set != "prior") %>%
  select(user_id, order_id, eval_set, days_since_prior_order)

Lets add the test and train variables to the users table to be used later for predictions.

users <- users %>% inner_join(users_notPrior, by="user_id")

users

## # A tibble: 40,000 x 10
##    user_id user.numOrders user.useInterval user.avgDaysSincePriorOrder
##      <int>          <dbl>            <int>                       <dbl>
##  1       2             14              198                   15.230769
##  2       6              3               18                    9.000000
##  3      10              5               79                   19.750000
##  4      16              6              109                   21.800000
##  5      50             67              357                    5.409091
##  6      52             27              236                    9.076923
##  7      63             39              347                    9.131579
##  8      73              7              133                   22.166667
##  9      77             12              148                   13.454545
## 10      78              6               82                   16.400000
## # ... with 39,990 more rows, and 6 more variables:
## #   user.totalProducts <int>, user.reorderRatio <dbl>,
## #   user.avgOrderSize <dbl>, order_id <int>, eval_set <fctr>,
## #   days_since_prior_order <int>
…
data <- data %>% 
  inner_join(prods, by = "product_id") %>%
  inner_join(users, by = "user_id")

We join with train dataset reorders to train model in which products are reordered

data <- data %>% 
  left_join(order_products_train %>% select(user_id, product_id, reordered), 
            by = c("user_id", "product_id"))

data

## # A tibble: 2,561,064 x 20
## # Groups:   user_id [?]
##    user_id product_id user_product.orders user_product.firstOrder
##      <int>      <int>               <int>                   <dbl>
##  1       2         23                   1                       8
##  2       2         79                   1                      13
##  3       2       1559                   6                       5
##  4       2       2002                   4                       8
##  5       2       2573                   2                      10
##  6       2       3151                   1                      12
##  7       2       4071                   1                      11
##  8       2       4957                   1                       6
##  9       2       5212                   1                       8
## 10       2       5322                   1                       5
## # ... with 2,561,054 more rows, and 16 more variables:
## #   user_product.lastOrder <dbl>, user_product.avgCartPosition <dbl>,
## #   product.orders <int>, product.reorderProbability <dbl>,
## #   product.avgTimesOrdered <dbl>, product.reorderRatio <dbl>,
## #   user.numOrders <dbl>, user.useInterval <int>,
## #   user.avgDaysSincePriorOrder <dbl>, user.totalProducts <int>,
## #   user.reorderRatio <dbl>, user.avgOrderSize <dbl>, order_id <int>,
## #   eval_set <fctr>, days_since_prior_order <int>, reordered <int>
…
train$reordered[is.na(train$reordered)] <- 0

test <- data %>%
  ungroup() %>%
  filter(eval_set == "test") %>%
  select(-eval_set, -user_id, -order_id, -reordered)

Predictions

(sampleTrain <- train %>% 
   sample_frac(0.1)) 

## # A tibble: 162,924 x 16
##    user_product.orders user_product.firstOrder user_product.lastOrder
##                  <int>                   <dbl>                  <dbl>
##  1                   1                      10                     10
##  2                   2                      15                     34
##  3                   1                      12                     12
##  4                   4                       4                     97
##  5                   1                       5                      5
##  6                   1                       2                      2
##  7                   1                      81                     81
##  8                   1                       6                      6
##  9                   1                       3                      3
## 10                  16                      35                     56
## # ... with 162,914 more rows, and 13 more variables:
## #   user_product.avgCartPosition <dbl>, product.orders <int>,
## #   product.reorderProbability <dbl>, product.avgTimesOrdered <dbl>,
## #   product.reorderRatio <dbl>, user.numOrders <dbl>,
## #   user.useInterval <int>, user.avgDaysSincePriorOrder <dbl>,
## #   user.totalProducts <int>, user.reorderRatio <dbl>,
## #   user.avgOrderSize <dbl>, days_since_prior_order <int>, reordered <dbl>
…
