InstaCart Exploratory Analysis: Days Since Prior Order
…
What is the Average Number of Days Since Prior Order?

(avgNum <-
  orders %>%
  filter(!is.na(days_since_prior_order)) %>%
  summarise(avg = mean(days_since_prior_order)))

## # A tibble: 20,000 x 2
##    user_id       avg
##      <int>     <dbl>
##  1       2 15.230769
##  2      42 13.866667
##  3      57  8.076923
##  4      65 12.769231
##  5      71 14.272727
##  6      73 22.166667
##  7      76 22.000000
##  8      83 18.000000
##  9      89  9.368421
## 10      97 24.000000
## # ... with 19,990 more rows
…
